C:\Users\LENOVO\Documents\NetBeansProjects\Reto5BetaOKCaSm\src\main\java\Model\Farmacia.java
C:\Users\LENOVO\Documents\NetBeansProjects\Reto5BetaOKCaSm\src\main\java\Model\Calculadora.java
C:\Users\LENOVO\Documents\NetBeansProjects\Reto5BetaOKCaSm\src\main\java\View\ViewFarmacia.java
C:\Users\LENOVO\Documents\NetBeansProjects\Reto5BetaOKCaSm\src\main\java\Model\Reto5BetaokMain.java
C:\Users\LENOVO\Documents\NetBeansProjects\Reto5BetaOKCaSm\src\main\java\Model\Usuario.java
C:\Users\LENOVO\Documents\NetBeansProjects\Reto5BetaOKCaSm\src\main\java\Model\Producto.java
C:\Users\LENOVO\Documents\NetBeansProjects\Reto5BetaOKCaSm\src\main\java\Controller\ConnectionDB.java
